fw
real_phy_wrx500/ap_upper_gen5b.bin.platform.wave500.asic = ap_upper_gen5b_wrx_500.bin
real_phy_wrx500/ap_lower_gen5b.bin.platform.wave500.asic = ap_lower_gen5b_wrx_500.bin
real_phy_wrx514/ap_upper_gen5b.bin.platform.wave500.asic = ap_upper_gen5b_wrx_514.bin
real_phy_wrx514/ap_lower_gen5b.bin.platform.wave500.asic = ap_lower_gen5b_wrx_514.bin
fw_definitions/fw_scd_file.scd = fw_scd_file.scd
fw_definitions/hw_scd_file.scd = hw_scd_file.scd
fw_statistics/mtdump_wave500b.mtidlc = mtdump_wave500b.mtidlc
fw_statistics/mtdump_wave400.mtidlc = mtdump_wave400.mtidlc
